
srv.hrlife.mobi - 5.39.83.118
	Host: OVH compte:me@zhanshengjie.com
	APP1: hrlife
	APP2: maidou


jap.itsium.net sj8.me zhanshengjie.com - 106.186.116.167
	Host: Linode
	APP1: Vesta cp / sj8.me:8083 / User: admin 
	APP2: proxy jap
 

aeejc.com heroku jekill website zsj@aeejc.com

zsj.fr heroku jekill website heroku@zsj.fr

infaguo.com heroku jekill website zhan.shengjie+heroku@gmail.com

ksvcproxy heroku contact@aeejc.com proxy jsonp 

===============================================================

NuclearApp:  http://app.chinanuclearsupplier.com
  Prod : ubuntu@54.169.168.67 |  Ubuntu 14.04 LTS

Yuemu:
  Prod : root@114.215.195.169 | Ubuntu 12.04.4 LTS

tdys.zgjkkx.com:
  Prod : kryss@u2.itsium.cn |

Itsium Cn 
  kryss@121.199.40.108

